215
16.5109470000000016 16.3102419999999988 16.3854340000000001
Si    0.0666029699407531  0.6027491882188158  0.4886941537394733
Si    0.1726428737042909  0.8225134127085454  0.5488613666492341
Si    0.6132443962899430  0.4668653153202769  0.6337694940004326
Si    0.5098064893926519  0.2576797412795315  0.2150934393443009
Si    0.9811646185130272  0.7204282752880218  0.5159941413775755
Si    0.2388755202829316  0.1806098960121076  0.1138672815728654
Si    0.0108673670312953  0.0246069008329641  0.2355934028998732
Si    0.5046925814893513  0.7065007927808296  0.0514204491102106
Si    0.9620207804529386  0.2394151904362118  0.5122023905650153
Si    0.4870072168852246  0.1418695720699858  0.2941647846857904
Si    0.6487742424453629  0.2462271404831995  0.2357750682302893
Si    0.2310765489853850  0.0978417837070111  0.8769740929403156
Si    0.7568898235171986  0.4896401143729392  0.0437738092266358
Si    0.7405834408650520  0.2541397478639738  0.8960507521929415
Si    0.9220747019664088  0.9329593974826267  0.1580302841724404
Si    0.8528069714472437  0.6611814061374659  0.5406585494983744
Si    0.6818050063897871  0.1639654688726608  0.1220201988861191
Si    0.5325391649394291  0.7097380977721670  0.6518136924336275
Si    0.6313373959048718  0.7763481137598163  0.3943905408521715
Si    0.1684003025829597  0.9930207445323305  0.0767734737094941
Si    0.8817702959228342  0.4383955780808222  0.0902718446412862
Si    0.7478764483732618  0.9779962037441194  0.4315393530260394
Si    0.1722163108359211  0.6317085738303732  0.3933497477410199
Si    0.9561688526674246  0.5463858283143708  0.2927081777106864
Si    0.2058605700870757  0.7581541683710924  0.1539951305761491
Si    0.5368141321110471  0.8650267292636116  0.4529356330969421
Si    0.2878329975569329  0.5773330884522778  0.4514689795726596
Si    0.5555419968459958  0.4092937263345746  0.8997386992549963
Si    0.6629814211683893  0.6864348728485510  0.6061836487992593
Si    0.7787113871620335  0.7258283051869867  0.0114182615895970
Si    0.0170947431693946  0.1442938162314817  0.1537717683712785
Si    0.0183700264332955  0.1378077039200605  0.0074326610346347
Si    0.2057474721494330  0.0291042470047174  0.4172425622143052
Si    0.9356012617345399  0.7326024589358369  0.0055871757447221
Si    0.1280891392685817  0.5646016481005631  0.8558180042442487
Si    0.2338417850410011  0.5521243818997874  0.6691382812626472
Si    0.9110467171821739  0.3826839818523027  0.7874979370915867
Si    0.2952679155095623  0.2060072128040318  0.3265632112509209
Si    0.4060340522924619  0.1749558782670917  0.6529764536578710
Si    0.3812241149545770  0.6951554492934733  0.9803693978583468
Si    0.3950441596903147  0.8624824683317627  0.6297840038442075
Si    0.4999031954968984  0.7543145817740466  0.7855831924862500
Si    0.1258980989559717  0.9690537856769268  0.3055323058998880
Si    0.9675251612402107  0.7923442949731836  0.8646630599943563
Si    0.0397553173959793  0.0178353587071030  0.5536084378106523
Si    0.3633839021087297  0.9908252187883662  0.5810820572475635
Si    0.1448349787564354  0.3931752909447610  0.3746020200726576
Si    0.2459265370858645  0.0233293496998215  0.6548097806545314
Si    0.1559748774618370  0.4211713424810455  0.8245252726573469
Si    0.3132104666875648  0.6314817090708544  0.5824274464110104
Si    0.7889472767442385  0.3616731729623055  0.3473519532211782
Si    0.3895110212133375  0.4365582778401205  0.7428741855764756
Si    0.8572387684168987  0.4365146456931512  0.5728655510480039
Si    0.8833120740788232  0.2642069156087672  0.8627142086697717
Si    0.0262652020205394  0.4814468772305460  0.4149417218935980
Si    0.7703255581682242  0.7734266846411444  0.5671561478098326
Si    0.9350841225394859  0.0707689136209950  0.3477337281163244
Si    0.2608808758942658  0.0762574462783476  0.0148503345237287
Si    0.9760704807816651  0.3869728186942183  0.5175409954977610
Si    0.0481467979092614  0.3611817459475475  0.7493342126147482
Si    0.5605908237856241  0.8247473406715429  0.9970642912508296
Si    0.2454078492538585  0.6152123893094554  0.7963775814033767
Si    0.7439086423742225  0.2468479641391497  0.4259124060510331
Si    0.9419371650243207  0.9754193477285327  0.4603599365544682
Si    0.6095006682805462  0.8049462275713921  0.8632129944645541
Si    0.9063064162325034  0.3102848257743389  0.2920547033406748
Si    0.7117817008956280  0.6169534548941371  0.0847253999567954
Si    0.8524241769953420  0.7850379129149516  0.3385566188219826
Si    0.1489518246976189  0.6420523601176455  0.9807902499822490
Si    0.1209117568406555  0.2356050640622769  0.1904612859780954
Si    0.2011911568948008  0.3662906158391763  0.5852114913406439
Si    0.8192924643721327  0.2112633405233311  0.6699431879666449
Si    0.4777333374137740  0.0501057715300064  0.6431410723317441
Si    0.5001890881196687  0.6171539056754014  0.4526264626702456
Si    0.9034536838684346  0.6113274711409673  0.7649062710669412
Si    0.4524019638097343  0.3411859802348829  0.8267751949282101
Si    0.8307815412012118  0.1836436408928108  0.5303639255244406
Si    0.5649450617520060  0.2187454107616418  0.5422597000334264
Si    0.8684264587653345  0.9657162612252179  0.6895404901554230
Si    0.8634186718395469  0.2964667369049749  0.0743331888057952
Si    0.4530505313099340  0.6435488101363944  0.8643767501758219
Si    0.6904370187869091  0.8587477217301469  0.1956443866613284
Si    0.6900922002954744  0.3842358466338140  0.2405780762797534
Si    0.7558248454928176  0.8325942676811167  0.4344893997939536
Si    0.1896735479449418  0.7754259580361236  0.4107580963701452
Si    0.0839344839021194  0.8342781549385023  0.3338043519811009
Si    0.8275366848480985  0.0338726767995254  0.5434537262964980
Si    0.0561574679904169  0.1589677368463356  0.5903216332457362
Si    0.2943472467817685  0.8447114185102791  0.2212669928039972
Si    0.6039738874779061  0.9723828713032461  0.2127516044132207
Si    0.9626410509797125  0.2670060170650714  0.9808550923675483
Si    0.7802632990277161  0.4594820579693177  0.4548807715643761
Si    0.1703917435384383  0.9692134590473955  0.5428641922959301
Si    0.5223123052760954  0.1298247691654666  0.8517978995574893
Si    0.8462780379569921  0.7496224931334083  0.7911473834030005
Si    0.7014908495547729  0.5728414893931415  0.6813451549979561
Si    0.5834290381974654  0.0771484423862958  0.5487970371197406
Si    0.2667852833331779  0.4276980451945036  0.4696342873520649
Si    0.4685105967136636  0.9409752984269204  0.2492798067919111
Si    0.4781195776373437  0.5017157562531338  0.2093177064918237
Si    0.0464636856110019  0.6178516993524923  0.2017006591938397
Si    0.1698462466323392  0.3363475719060105  0.9422988448789553
Si    0.6263340957441770  0.9343290986445751  0.8024389172978417
Si    0.6760504863676005  0.3844705352582238  0.0938710639277858
Si    0.6477768094345251  0.4393608530365256  0.4980310738523457
Si    0.4431690135941722  0.1645110959611458  0.9680878451558996
Si    0.6834103662157602  0.3756794076200478  0.8493157460842085
Si    0.6074440715273894  0.0443413831189332  0.0852721352706993
Si    0.4977645214092377  0.3749233133850396  0.3940037847255198
Si    0.3246186144597303  0.8285980575520711  0.9658417521471492
Si    0.6944570974694173  0.8404209376270728  0.0538642274473773
Si    0.0728421348664057  0.4148924196988091  0.6170700358479806
Si    0.6053280958000116  0.9893407078230467  0.4405171343603982
Si    0.2677233915424537  0.1641722051985965  0.6675369743262962
Si    0.0979183228042046  0.5572095674602053  0.6257729832476286
Si    0.0448998929639117  0.6146739299504915  0.7478389768672145
Si    0.4609317044832437  0.0477703968640455  0.0567029652318993
Si    0.2516483290833449  0.2181010317979855  0.7996134331753169
Si    0.3847394809492570  0.6579638972132074  0.3749141724415779
Si    0.9759901617970641  0.2128556435866429  0.3731437820942745
Si    0.7599638521448213  0.4883633272098464  0.8978238352947727
Si    0.8939838910273536  0.2146710553029791  0.1856365736156533
Si    0.3231085621175609  0.7957447380481781  0.3578370319261808
Si    0.4655482839762399  0.4656700113482373  0.6218481236539475
Si    0.6105124543101041  0.2423163681906644  0.6740087245914808
Si    0.9559227435671076  0.4231755961373764  0.2147564081827156
Si    0.4184046975837106  0.9043459036925086  0.3816551655685956
Si    0.9066283550186114  0.1581310608753341  0.7682569022145103
Si    0.4060595764896604  0.6232949020082970  0.2392770889493860
Si    0.3540500983793748  0.2654969727096983  0.8988325022807970
Si    0.4215586857296358  0.8433573023552512  0.1617181397622574
Si    0.8561180939873907  0.0336411743104961  0.8198931978323500
Si    0.3039170751032572  0.3345753170979151  0.2455581342670925
Si    0.0976500993177680  0.8867769577436775  0.0122668805953836
Si    0.9650816662185733  0.8291538915895913  0.4156619968349062
Si    0.2530120093543999  0.4135167240730695  0.7117542911619381
Si    0.5333719884102450  0.8413986696645779  0.5947354274252987
Si    0.4395367290803733  0.3734659250044317  0.2653861622459956
Si    0.7034599139462898  0.6222267048327979  0.2288933717866968
Si    0.1290561989743679  0.1910045780231471  0.9331225880204599
Si    0.2256551451105935  0.9716390571402442  0.2073391983264585
Si    0.4380711750313324  0.9017611883962076  0.0295476561839081
Si    0.4264924241289876  0.2365000523884149  0.5271306256144612
Si    0.7319100575756607  0.2661995732166744  0.0366656320873133
Si    0.0829605755129279  0.3740285316363909  0.1581022471215263
Si    0.6971152831326748  0.0308395000749186  0.6205196688198953
Si    0.0162449202071642  0.9260512580934019  0.9000977320348937
Si    0.2795503449730532  0.6001219077403519  0.0325815328908803
Si    0.8413537602731154  0.5615209380445521  0.6442619440334028
Si    0.7242213896713920  0.0111874541096597  0.8752760261074641
Si    0.1886705578671268  0.4279112933987719  0.2429862255499273
Si    0.5815003448110261  0.5932462068031370  0.0251004277326459
Si    0.1748069067439104  0.5728977879336128  0.2531895008224012
Si    0.0422612022076692  0.1252046067587855  0.7323571155949011
Si    0.8969938454424096  0.5036246040448376  0.8647414396000102
Si    0.3607498664511866  0.5417654318878604  0.8383812421657382
Si    0.4791387863155592  0.4994641993190783  0.0662808372291508
Si    0.2769010993421048  0.6334060073135674  0.1730284699973694
Si    0.8034873741709418  0.0407602446022821  0.3026112547091557
Si    0.6156600635445884  0.3073888584104836  0.4492062539001012
Si    0.8040550745551016  0.1055647562641582  0.1675993654190293
Si    0.6580787474447050  0.8992311550292129  0.6691158406038937
Si    0.6892025227252532  0.5913928204224845  0.8261806437151265
Si    0.9985044153879770  0.8273345976813147  0.0992677136239664
Si    0.4699268450557170  0.2584123496773358  0.0767098115408658
Si    0.9737729004708982  0.4934377682114715  0.9919283604061917
Si    0.5007695561431476  0.0010168732034543  0.7804992194813920
Si    0.1955356096076670  0.1744138901806664  0.4239240651880536
Si    0.6017419890847719  0.0650108424477978  0.3216051772630095
Si    0.2988951679493539  0.3609722685610990  0.9930376233416993
Si    0.4019922690317799  0.1556621552963122  0.4071069840703601
Si    0.0767121072344281  0.7532114261723990  0.7599596407475602
Si    0.2862404495681901  0.1019890349386401  0.2231341219284459
Si    0.3574828671232382  0.4931026990782854  0.9796924370625320
Si    0.2138492301286306  0.9807963239397282  0.7905512599090017
Si    0.4525358558827079  0.6062913083190082  0.5881640315284073
Si    0.0217159618412737  0.6175455489985637  0.0525246734391800
Si    0.0036181901554855  0.9308538233877712  0.6606054476471144
Si    0.4069371167646736  0.3788959698864147  0.5059641918848570
Si    0.6264612042200852  0.7433591754648461  0.2548962056527131
Si    0.2908406306702318  0.8641520883328297  0.8318118599842634
Si    0.6673609258575937  0.1381058687572931  0.8516715272469213
Si    0.7300377421209490  0.7217672749114783  0.8738082530270290
Si    0.1948170126455153  0.7827105402802630  0.0123569061472608
Si    0.0473646079032974  0.7973543271061416  0.6225524601796053
Si    0.5431875540165834  0.3775936620829299  0.0399183778983456
Si    0.7931466777990934  0.8433081333094847  0.6869885421723154
Si    0.8161943355717227  0.3543242159622153  0.6807801852981186
Si    0.6766144825908000  0.3644785727586140  0.7080177070448244
Si    0.4181477430024287  0.8779773188315971  0.7704465239209242
Si    0.1055570157883139  0.2347783711747482  0.7974020055460258
Si    0.0712800404967666  0.9836034752031821  0.7767044418628259
Si    0.6145831201182972  0.5081109382999500  0.2666425473947172
Si    0.0554552715944752  0.3771217885345735  0.0130387053165251
Si    0.4189487236868246  0.0634966113541253  0.1969344142156260
Si    0.8299749987942420  0.6366323263661329  0.3075662103986900
Si    0.8499028172813610  0.0161247951540702  0.0638751801521451
Si    0.8185092199779049  0.8957614675388754  0.2506191341382191
Si    0.7742122615615870  0.6014273727077395  0.4343115184176582
Si    0.7198494489208613  0.9753612893723016  0.0150183576028127
Si    0.2256068079861961  0.7553466139564904  0.7627942939573984
Si    0.6393634835834234  0.6545095545424360  0.4675834565846202
Si    0.5626860810291632  0.5010261234056372  0.4007673689236810
Si    0.7107477003143501  0.1525947031732287  0.3270593512762403
Si    0.0721411200553135  0.7613192472870836  0.2074208681892244
Si    0.3313980249251927  0.2884493137516912  0.1102157788170359
Si    0.1085188210618284  0.2492305208923966  0.3398618289577229
Si    0.2815188115956175  0.7674050566558606  0.6261228022349457
Si    0.4957888316696852  0.7249269178225859  0.1918201395969561
Si    0.4930258997613350  0.2289860858135171  0.7514867257761466
Si    0.3512597902538701  0.0205605241121489  0.4379860665197128
Si    0.5661758865944506  0.5573474826065521  0.8881820773424707
Si    0.1874316027678660  0.2212331053218719  0.5625844283887957
Si    0.9337200551388705  0.0330939035456410  0.9464833361130474
Si    0.7025706390826514  0.1424314497085746  0.7131076055068704
